<svg xmlns="http://www.w3.org/2000/svg" width="892" height="326" viewBox="0 0 892 326">
    <path fill="#EFEFEF" fill-rule="nonzero" d="M34.529 326c-27.027 0-50.34-4.556-69.942-13.67-19.602-9.112-34.6-22.184-44.995-39.215C-90.803 256.084-96 236.065-96 213.059c0-9.561 1.188-20.616 3.564-33.165L-57.688 6H30.52L-3.783 178.549c-1.782 8.964-2.673 17.18-2.673 24.65 0 32.867 17.225 49.3 51.677 49.3 18.71 0 33.486-5.752 44.326-17.255 10.84-11.504 18.933-30.402 24.28-56.695L148.128 6H235l-35.194 177.927C180.798 278.643 125.706 326 34.53 326zM297.339 8h135.367c32.06 0 59.816 5.274 83.268 15.823 23.451 10.548 41.485 25.703 54.101 45.463C582.692 89.046 589 112.297 589 139.04c0 36.252-8.238 68.046-24.713 95.383-16.476 27.337-39.408 48.434-68.796 63.291C466.1 312.572 432.409 320 394.41 320H235L297.34 8zm99.502 239c21.436 0 39.969-4.527 55.599-13.582 15.63-9.055 27.464-21.523 35.502-37.406C495.981 180.129 500 162.094 500 141.906c0-21.078-6.55-37.332-19.65-48.761C467.252 81.715 448.05 76 422.743 76H370.94L337 247h59.841zm322.462 79c-25.882 0-50.425-3.135-73.63-9.404-23.205-6.27-42.096-14.33-56.673-24.181l34.807-66.275c15.767 10.15 32.576 17.838 50.426 23.062s35.7 7.836 53.549 7.836c16.957 0 30.121-2.462 39.493-7.388 9.37-4.926 14.056-11.718 14.056-20.375 0-7.464-4.239-13.285-12.718-17.465-8.478-4.18-21.642-8.657-39.492-13.434-20.23-5.373-37.038-10.821-50.426-16.344-13.387-5.523-24.915-13.957-34.584-25.301-9.668-11.345-14.503-26.271-14.503-44.78 0-22.39 6.099-42.02 18.296-58.886 12.198-16.868 29.601-29.929 52.21-39.183C722.725 4.627 749.203 0 779.547 0c22.313 0 43.137 2.314 62.475 6.94 19.337 4.628 35.997 11.27 49.979 19.928l-32.13 65.827c-12.197-7.762-25.659-13.658-40.385-17.688-14.726-4.03-29.824-6.045-45.294-6.045-17.552 0-31.311 2.836-41.277 8.508-9.966 5.672-14.95 12.986-14.95 21.942 0 7.762 4.314 13.733 12.942 17.912 8.627 4.18 22.014 8.658 40.162 13.434 20.23 5.075 36.964 10.3 50.202 15.673 13.239 5.374 24.618 13.584 34.138 24.63 9.52 11.045 14.28 25.524 14.28 43.436 0 22.092-6.173 41.571-18.52 58.438-12.346 16.868-29.898 29.929-52.656 39.183C775.753 321.373 749.35 326 719.303 326z"/>
</svg>
