<svg xmlns="http://www.w3.org/2000/svg" width="24" height="24" viewBox="0 0 24 24">
    <path fill="#003EFF" fill-rule="nonzero" d="M12 0c6.628 0 12 5.372 12 12s-5.372 12-12 12S0 18.628 0 12 5.372 0 12 0zM6.821 5.268c-2.854 2.427 5.962 16.194 9.211 14.397 1.02-.566 1.59-.88 1.706-1.444.063-.3-1.904-3.963-2.068-4.059-1.02-.593-1.23.105-2.022.144-1.034.054-3.442-3.709-2.996-4.682.337-.734.974-1.109.985-1.803.003-.21-2.342-3.388-2.552-3.505-.688-.387-1.195.045-2.264.952z"/>
</svg>
