<svg xmlns="http://www.w3.org/2000/svg" width="24" height="24" viewBox="0 0 24 24">
    <path fill="#C2C2C2" fill-rule="nonzero" d="M12 .067c3.24 0 3.647.014 4.92.073.99.02 1.97.207 2.896.554.796.3 1.518.77 2.113 1.377a5.85 5.85 0 0 1 1.377 2.113c.347.927.535 1.906.554 2.896.059 1.273.073 1.68.073 4.92s-.014 3.647-.073 4.92c-.02.99-.207 1.97-.554 2.896a6.102 6.102 0 0 1-3.49 3.49 8.746 8.746 0 0 1-2.896.554c-1.273.059-1.68.073-4.92.073s-3.647-.014-4.92-.073a8.746 8.746 0 0 1-2.896-.554A5.85 5.85 0 0 1 2.07 21.93a5.85 5.85 0 0 1-1.377-2.113A8.746 8.746 0 0 1 .14 16.92C.081 15.647.067 15.24.067 12S.081 8.353.14 7.08c.02-.99.207-1.97.554-2.896A5.85 5.85 0 0 1 2.07 2.07 5.85 5.85 0 0 1 4.184.694 8.746 8.746 0 0 1 7.08.14C8.353.081 8.76.067 12 .067zm0 5.142c2.21 0 2.473 0 3.348.049a4.56 4.56 0 0 1 1.533.284c.724.28 1.297.853 1.577 1.577a4.56 4.56 0 0 1 .284 1.537c.041.875.05 1.137.05 3.348 0 2.21 0 2.473-.05 3.348a4.56 4.56 0 0 1-.284 1.53 2.754 2.754 0 0 1-1.577 1.576 4.56 4.56 0 0 1-1.537.284c-.875.041-1.135.05-3.348.05s-2.473 0-3.348-.05a4.56 4.56 0 0 1-1.53-.284 2.754 2.754 0 0 1-1.576-1.577 4.56 4.56 0 0 1-.284-1.537c-.041-.875-.05-1.137-.05-3.348 0-2.21 0-2.473.05-3.348a4.56 4.56 0 0 1 .284-1.53A2.754 2.754 0 0 1 7.12 5.543a4.56 4.56 0 0 1 1.537-.284c.875-.041 1.137-.05 3.348-.05H12zm.004-1.48c-2.237 0-2.528.01-3.41.05a6.059 6.059 0 0 0-2.008.384 4.23 4.23 0 0 0-2.423 2.419 6.059 6.059 0 0 0-.384 2.007c-.04.883-.05 1.166-.05 3.411s.01 2.528.05 3.41c.014.687.143 1.366.384 2.008a4.23 4.23 0 0 0 2.419 2.419c.642.24 1.321.37 2.007.384.883.04 1.166.05 3.411.05s2.528 0 3.41-.05a6.059 6.059 0 0 0 2.008-.384 4.23 4.23 0 0 0 2.419-2.419c.24-.642.37-1.321.384-2.007.04-.883.05-1.166.05-3.411s0-2.528-.05-3.41a6.059 6.059 0 0 0-.384-2.008 4.23 4.23 0 0 0-2.419-2.419 6.059 6.059 0 0 0-2.007-.384c-.883-.04-1.166-.05-3.411-.05h.004zM12 7.754a4.245 4.245 0 1 0 0 8.49 4.245 4.245 0 0 0 0-8.49zm0 7.01a2.764 2.764 0 1 1 0-5.53 2.764 2.764 0 0 1 0 5.53zm5.398-7.172a.99.99 0 1 0-1.981 0 .99.99 0 0 0 1.981 0z"/>
</svg>
